<?xml version="1.0" encoding="UTF-8" standalone="no"?>
<svg
   xmlns:dc="http://purl.org/dc/elements/1.1/"
   xmlns:cc="http://creativecommons.org/ns#"
   xmlns:rdf="http://www.w3.org/1999/02/22-rdf-syntax-ns#"
   xmlns:svg="http://www.w3.org/2000/svg"
   xmlns="http://www.w3.org/2000/svg"
   xmlns:sodipodi="http://sodipodi.sourceforge.net/DTD/sodipodi-0.dtd"
   xmlns:inkscape="http://www.inkscape.org/namespaces/inkscape"
   width="81.855469mm"
   height="59.11784mm"
   viewBox="0 0 81.855467 59.11784"
   version="1.1"
   id="svg8"
   sodipodi:docname="letter_flip.svg"
   inkscape:version="0.92.4 (5da689c313, 2019-01-14)">
  <sodipodi:namedview
     pagecolor="#ffffff"
     bordercolor="#666666"
     borderopacity="1"
     objecttolerance="10"
     gridtolerance="10"
     guidetolerance="10"
     inkscape:pageopacity="0"
     inkscape:pageshadow="2"
     inkscape:window-width="1850"
     inkscape:window-height="1016"
     id="namedview8"
     showgrid="false"
     fit-margin-top="0"
     fit-margin-left="0"
     fit-margin-right="0"
     fit-margin-bottom="0"
     inkscape:zoom="2.746182"
     inkscape:cx="175.68243"
     inkscape:cy="129.15705"
     inkscape:window-x="70"
     inkscape:window-y="27"
     inkscape:window-maximized="1"
     inkscape:current-layer="text14" />
  <defs
     id="defs2" />
  <metadata
     id="metadata5">
    <rdf:RDF>
      <cc:Work
         rdf:about="">
        <dc:format>image/svg+xml</dc:format>
        <dc:type
           rdf:resource="http://purl.org/dc/dcmitype/StillImage" />
        <dc:title></dc:title>
      </cc:Work>
    </rdf:RDF>
  </metadata>
  <g
     id="layer1"
     transform="translate(-80.811385,-30.804066)">
    <g
       aria-label="fd"
       style="font-style:normal;font-weight:normal;font-size:10.58333302px;line-height:1.25;font-family:sans-serif;letter-spacing:0px;word-spacing:0px;fill:#000000;fill-opacity:1;stroke:none;stroke-width:0.26458332"
       id="text816"
       transform="translate(23.623512)">
      <g
         aria-label="lip"
         style="font-style:normal;font-weight:normal;font-size:10.58333302px;line-height:1.25;font-family:sans-serif;letter-spacing:0px;word-spacing:0px;fill:#000000;fill-opacity:1;stroke:none;stroke-width:0.07000434"
         id="text3715">
        <g
           aria-label="flip"
           style="font-style:normal;font-weight:normal;font-size:10.58333302px;line-height:1.25;font-family:sans-serif;letter-spacing:0px;word-spacing:0px;fill:#000000;fill-opacity:1;stroke:none;stroke-width:0.01852198"
           id="text14">
          <path
             d="m 59.461636,44.446644 c 0.757921,0 2.273763,0 2.273763,0 0,0 0,-3.031684 0,-4.547526 0,-2.549371 0.889973,-4.691025 2.652723,-6.442329 1.774233,-1.762712 3.915926,-2.652723 6.442329,-2.652723 0.757921,0 1.515842,0 2.273763,0 1.515842,0 2.273763,0.757921 2.273763,2.273763 0,1.515842 -0.757921,2.273763 -2.273763,2.273763 -0.757921,0 -1.515842,0 -2.273763,0 -1.263201,0 -2.342665,0.447862 -3.23839,1.343587 -0.872757,0.872758 -1.309136,1.940738 -1.309136,3.203939 0,1.515842 0,4.547526 0,4.547526 0,0 4.547526,0 6.821289,0 1.515842,0 2.273763,0.757921 2.273763,2.273763 0,1.515842 -0.757921,2.273763 -2.273763,2.273763 -2.273763,0 -6.821289,0 -6.821289,0 0,0 0,16.674263 0,25.011394 0,1.515842 -0.757921,2.273763 -2.273763,2.273763 -1.515842,0 -2.273763,-0.757921 -2.273763,-2.273763 0,-8.337131 0,-25.011394 0,-25.011394 0,0 -1.515842,0 -2.273763,0 -1.515842,0 -2.273763,-0.757921 -2.273763,-2.273763 0,-1.515842 0.757921,-2.273763 2.273763,-2.273763 z"
             style="font-style:normal;font-variant:normal;font-weight:normal;font-stretch:normal;font-size:70.55555725px;font-family:ISOCPEUR;-inkscape-font-specification:ISOCPEUR;stroke-width:0.01852198"
             id="path16"
             inkscape:connector-curvature="0"
             sodipodi:nodetypes="scssssssssscssscssscsss" />
          <path
             d="m 84.473029,33.077829 c 0,-1.515842 0.757921,-2.273763 2.273763,-2.273763 1.515842,0 2.273763,0.757921 2.273763,2.273763 0,12.126736 0,24.253473 0,36.380209 0,1.171333 0.757921,1.929254 2.273763,2.273763 1.515842,0.34451 2.273763,1.102431 2.273763,2.273763 0,1.515842 -0.757921,2.273763 -2.273763,2.273763 -2.04409,0 -3.708946,-0.585403 -4.960937,-1.791449 -1.251554,-1.205626 -1.860352,-2.893881 -1.860352,-5.02984 0,-12.126736 0,-24.253473 0,-36.380209 z"
             style="font-style:normal;font-variant:normal;font-weight:normal;font-stretch:normal;font-size:70.55555725px;font-family:ISOCPEUR;-inkscape-font-specification:ISOCPEUR;stroke-width:0.01852198"
             id="path18"
             inkscape:connector-curvature="0"
             sodipodi:nodetypes="ssssssssss" />
          <path
             d="m 102.66313,46.720407 c 0,-1.515842 0.75792,-2.273763 2.27377,-2.273763 1.51584,0 2.27376,0.757921 2.27376,2.273763 0,9.095052 0,18.190105 0,27.285157 0,1.515842 -0.75792,2.273763 -2.27376,2.273763 -1.51585,0 -2.27377,-0.757921 -2.27377,-2.273763 0,-9.095052 0,-18.190105 0,-27.285157 z m 0,-11.368815 c 0,-0.757921 0,-1.515842 0,-2.273763 0,-1.515842 0.75792,-2.273763 2.27377,-2.273763 1.51584,0 2.27376,0.757921 2.27376,2.273763 0,0.757921 0,1.515842 0,2.273763 0,1.515842 -0.75792,2.273763 -2.27376,2.273763 -1.51585,0 -2.27377,-0.757921 -2.27377,-2.273763 z"
             style="font-style:normal;font-variant:normal;font-weight:normal;font-stretch:normal;font-size:70.55555725px;font-family:ISOCPEUR;-inkscape-font-specification:ISOCPEUR;stroke-width:0.01852198"
             id="path20"
             inkscape:connector-curvature="0"
             sodipodi:nodetypes="ssssssssssssss" />
          <path
             d="m 116.30571,46.720407 c 0,-1.515842 0.75792,-2.273763 2.27377,-2.273763 3.7896,0 7.57921,0 11.36881,0 2.54937,0 4.6853,0.895687 6.44233,2.652724 1.75703,1.757036 2.65272,3.892958 2.65272,6.442329 0,4.547526 0,9.095052 0,13.642578 0,2.526403 -0.89001,4.668096 -2.65272,6.442329 -1.7513,1.76275 -3.89296,2.652723 -6.44233,2.652723 -3.03168,0 -9.09505,0 -9.09505,0 0,0 0,7.579211 0,11.368816 0,1.515842 -0.75792,2.273763 -2.27376,2.273763 -1.51585,0 -2.27377,-0.757921 -2.27377,-2.273763 0,-13.642579 0,-27.285157 0,-40.927736 z m 4.54753,2.273763 v 22.737631 c 0,0 6.06337,0 9.09505,0 1.2632,0 2.33118,-0.436379 3.20394,-1.309136 0.89573,-0.895725 1.34359,-1.975188 1.34359,-3.23839 0,-4.547526 0,-9.095052 0,-13.642578 0,-1.286169 -0.43638,-2.365633 -1.30914,-3.23839 -0.87276,-0.872758 -1.95222,-1.309137 -3.23839,-1.309137 -3.03168,0 -9.09505,0 -9.09505,0 z"
             style="font-style:normal;font-variant:normal;font-weight:normal;font-stretch:normal;font-size:70.55555725px;font-family:ISOCPEUR;-inkscape-font-specification:ISOCPEUR;stroke-width:0.01852198"
             id="path22"
             inkscape:connector-curvature="0"
             sodipodi:nodetypes="sssssssscssssccssssssc" />
        </g>
      </g>
    </g>
  </g>
</svg>
